<?xml version="1.0" standalone="no"?>
<svg width="40px" height="40px" viewBox='0 0 8 8' version="1.1" xmlns="http://www.w3.org/2000/svg">
	<rect x="0px" y="0px" width="1px" height="1px" style="fill: #000000"/>
	<rect x="1px" y="0px" width="1px" height="1px" style="fill: #000000"/>
	<rect x="2px" y="0px" width="1px" height="1px" style="fill: #120000"/>
	<rect x="3px" y="0px" width="1px" height="1px" style="fill: #290101"/>
	<rect x="4px" y="0px" width="1px" height="1px" style="fill: #290101"/>
	<rect x="5px" y="0px" width="1px" height="1px" style="fill: #120000"/>
	<rect x="6px" y="0px" width="1px" height="1px" style="fill: #000000"/>
	<rect x="7px" y="0px" width="1px" height="1px" style="fill: #000000"/>
	<!-- ============================ -->
	<rect x="0px" y="1px" width="1px" height="1px" style="fill: #000000"/>
	<rect x="1px" y="1px" width="1px" height="1px" style="fill: #120000"/>
	<rect x="2px" y="1px" width="1px" height="1px" style="fill: #290101"/>
	<rect x="3px" y="1px" width="1px" height="1px" style="fill: #420202"/>
	<rect x="4px" y="1px" width="1px" height="1px" style="fill: #420202"/>
	<rect x="5px" y="1px" width="1px" height="1px" style="fill: #290101"/>
	<rect x="6px" y="1px" width="1px" height="1px" style="fill: #120000"/>
	<rect x="7px" y="1px" width="1px" height="1px" style="fill: #000000"/>
	<!-- ============================ -->
	<rect x="0px" y="2px" width="1px" height="1px" style="fill: #120000"/>
	<rect x="1px" y="2px" width="1px" height="1px" style="fill: #290101"/>
	<rect x="2px" y="2px" width="1px" height="1px" style="fill: #420202"/>
	<rect x="3px" y="2px" width="1px" height="1px" style="fill: #4A0202"/>
	<rect x="4px" y="2px" width="1px" height="1px" style="fill: #4A0202"/>
	<rect x="5px" y="2px" width="1px" height="1px" style="fill: #420202"/>
	<rect x="6px" y="2px" width="1px" height="1px" style="fill: #290101"/>
	<rect x="7px" y="2px" width="1px" height="1px" style="fill: #120000"/>
	<!-- ============================ -->
	<rect x="0px" y="3px" width="1px" height="1px" style="fill: #290101"/>
	<rect x="1px" y="3px" width="1px" height="1px" style="fill: #420202"/>
	<rect x="2px" y="3px" width="1px" height="1px" style="fill: #4A0202"/>
	<rect x="3px" y="3px" width="1px" height="1px" style="fill: #570303"/>
	<rect x="4px" y="3px" width="1px" height="1px" style="fill: #570303"/>
	<rect x="5px" y="3px" width="1px" height="1px" style="fill: #4A0202"/>
	<rect x="6px" y="3px" width="1px" height="1px" style="fill: #420202"/>
	<rect x="7px" y="3px" width="1px" height="1px" style="fill: #290101"/>
	<!-- ============================ -->
	<rect x="0px" y="4px" width="1px" height="1px" style="fill: #FF5C5C"/>
	<rect x="1px" y="4px" width="1px" height="1px" style="fill: #E80000"/>
	<rect x="2px" y="4px" width="1px" height="1px" style="fill: #FF5C5C"/>
	<rect x="3px" y="4px" width="1px" height="1px" style="fill: #570303"/>
	<rect x="4px" y="4px" width="1px" height="1px" style="fill: #570303"/>
	<rect x="5px" y="4px" width="1px" height="1px" style="fill: #FF5C5C"/>
	<rect x="6px" y="4px" width="1px" height="1px" style="fill: #E80000"/>
	<rect x="7px" y="4px" width="1px" height="1px" style="fill: #FF5C5C"/>
	<!-- ============================ -->
	<rect x="0px" y="5px" width="1px" height="1px" style="fill: #120000"/>
	<rect x="1px" y="5px" width="1px" height="1px" style="fill: #290101"/>
	<rect x="2px" y="5px" width="1px" height="1px" style="fill: #420202"/>
	<rect x="3px" y="5px" width="1px" height="1px" style="fill: #4A0202"/>
	<rect x="4px" y="5px" width="1px" height="1px" style="fill: #4A0202"/>
	<rect x="5px" y="5px" width="1px" height="1px" style="fill: #420202"/>
	<rect x="6px" y="5px" width="1px" height="1px" style="fill: #290101"/>
	<rect x="7px" y="5px" width="1px" height="1px" style="fill: #120000"/>
	<!-- ============================ -->
	<rect x="0px" y="6px" width="1px" height="1px" style="fill: #000000"/>
	<rect x="1px" y="6px" width="1px" height="1px" style="fill: #120000"/>
	<rect x="2px" y="6px" width="1px" height="1px" style="fill: #290101"/>
	<rect x="3px" y="6px" width="1px" height="1px" style="fill: #420202"/>
	<rect x="4px" y="6px" width="1px" height="1px" style="fill: #420202"/>
	<rect x="5px" y="6px" width="1px" height="1px" style="fill: #290101"/>
	<rect x="6px" y="6px" width="1px" height="1px" style="fill: #120000"/>
	<rect x="7px" y="6px" width="1px" height="1px" style="fill: #000000"/>
	<!-- ============================ -->
	<rect x="0px" y="7px" width="1px" height="1px" style="fill: #000000"/>
	<rect x="1px" y="7px" width="1px" height="1px" style="fill: #000000"/>
	<rect x="2px" y="7px" width="1px" height="1px" style="fill: #120000"/>
	<rect x="3px" y="7px" width="1px" height="1px" style="fill: #290101"/>
	<rect x="4px" y="7px" width="1px" height="1px" style="fill: #290101"/>
	<rect x="5px" y="7px" width="1px" height="1px" style="fill: #120000"/>
	<rect x="6px" y="7px" width="1px" height="1px" style="fill: #000000"/>
	<rect x="7px" y="7px" width="1px" height="1px" style="fill: #000000"/>
</svg>
